Netflix Text Analysis – Lea Komba
…
The top 20 most common words in the descriptions of Netflix shows and movies have amongst them words such as life, deatch, father, love, woman, friends, etc. We can see here that the most common word in this very simple analysis is life , and the least common word out of the top 20 is father.

#The Emotional Palette

Positive vs. Negative Words Using the Bing sentiment lexicon, I classified words as positive or negative to see the emotional balance:

Code

get_sentiments(lexicon = "afinn")

# A tibble: 2,477 × 2
   word       value
   <chr>      <dbl>
 1 abandon       -2
 2 abandoned     -2
 3 abandons      -2
 4 abducted      -2
 5 abduction     -2
 6 abductions    -2
 7 abhor         -3
 8 abhorred      -3
 9 abhorrent     -3
10 abhors        -3
# ℹ 2,467 more rows

Code

get_sentiments(lexicon = "nrc")

# A tibble: 13,872 × 2
   word        sentiment
   <chr>       <chr>    
 1 abacus      trust    
 2 abandon     fear     
 3 abandon     negative 
 4 abandon     sadness  
 5 abandoned   anger    
 6 abandoned   fear     
 7 abandoned   negative 
 8 abandoned   sadness  
 9 abandonment anger    
10 abandonment fear     
# ℹ 13,862 more rows

Code

get_sentiments(lexicon = "bing")

# A tibble: 6,786 × 2
   word        sentiment
   <chr>       <chr>    
 1 2-faces     negative 
 2 abnormal    negative 
 3 abolish     negative 
 4 abominable  negative 
 5 abominably  negative 
 6 abominate   negative 
 7 abomination negative 
 8 abort       negative 
 9 aborted     negative 
10 aborts      negative 
# ℹ 6,776 more rows
…
#Beyond Single Words

The Power of Bigrams Single words can be misleading. For example, “love” might appear in “love story” (positive) or “love gone wrong” (negative). That’s why I analyzed bigrams—two-word combinations to capture context:

Code

netflix_ngram <- Netflix_Data |>
  unnest_tokens(bigram, description, token = "ngrams", n = 2) |>
  filter(bigram != "NA")

netflix_ngram

# A tibble: 204,283 × 12
   show_id type  title     director cast  country date_added release_year rating
   <chr>   <chr> <chr>     <chr>    <chr> <chr>   <chr>             <dbl> <chr> 
 1 s1      Movie Dick Joh… Kirsten… <NA>  United… September…         2020 PG-13 
 2 s1      Movie Dick Joh… Kirsten… <NA>  United… September…         2020 PG-13 
 3 s1      Movie Dick Joh… Kirsten… <NA>  United… September…         2020 PG-13 
 4 s1      Movie Dick Joh… Kirsten… <NA>  United… September…         2020 PG-13 
 5 s1      Movie Dick Joh… Kirsten… <NA>  United… September…         2020 PG-13 
 6 s1      Movie Dick Joh… Kirsten… <NA>  United… September…         2020 PG-13 
 7 s1      Movie Dick Joh… Kirsten… <NA>  United… September…         2020 PG-13 
 8 s1      Movie Dick Joh… Kirsten… <NA>  United… September…         2020 PG-13 
 9 s1      Movie Dick Joh… Kirsten… <NA>  United… September…         2020 PG-13 
10 s1      Movie Dick Joh… Kirsten… <NA>  United… September…         2020 PG-13 
# ℹ 204,273 more rows
# ℹ 3 more variables: duration <chr>, listed_in <chr>, bigram <chr>

Code

netflix_ngram |>
  count(bigram, sort = TRUE)

# A tibble: 109,649 × 2
   bigram      n
   <chr>   <int>
 1 in a      708
 2 in this   695
 3 in the    667
 4 of the    666
 5 of a      569
 6 with a    486
 7 on a      460
 8 when a    421
 9 a young   408
10 to the    382
# ℹ 109,639 more rows

Code

##Let's remove stop words
netflix_bigrams_filtered <- netflix_ngram |>
  separate(bigram, c("word1", "word2"), sep = " ") |>
  filter(!word1 %in% stop_words$word,
         !word2 %in% stop_words$word) |>
  count(word1, word2, sort = TRUE)
netflix_bigrams_filtered 

# A tibble: 42,303 × 3
   word1       word2       n
   <chr>       <chr>   <int>
 1 true        story      57
 2 world       war        53
 3 los         angeles    46
 4 war         ii         45
 5 york        city       39
 6 documentary series     36
 7 martial     arts       36
 8 road        trip       36
 9 social      media      36
10 serial      killer     34
# ℹ 42,293 more rows
…
Let’s see how Netflix uses negation:

Code

netflix_afinn <- get_sentiments("afinn")

bigrams_separated <- netflix_ngram |>
  separate(bigram, c("word1", "word2"), sep = " ") |>
  count(word1, word2, sort = TRUE) |>
  filter(!is.na(word1) & !is.na(word2))

bigrams_separated |> filter(word1 == "not")

# A tibble: 49 × 3
   word1 word2       n
   <chr> <chr>   <int>
 1 not   be         11
 2 not   to          8
 3 not   knowing     7
 4 not   so          6
 5 not   the         5
 6 not   all         3
 7 not   just        3
 8 not   as          2
 9 not   even        2
10 not   have        2
# ℹ 39 more rows
…
